{
  "orders": [
    {
      "deliveryman": {
        "first_name": "Vasya",
        "last_name": "Pupkin",
        "age": 56,
        "category_license": "econom",
        "experience_years": 5,
        "phone_number": "+89178923333",
        "rating": 4
      },
      "location": {
        "country": "Russia",
        "city": "Kazan",
        "street": "Parina",
        "house_number": 22
      },
      "client": {
        "first_name": "Petya",
        "last_name": "Peshekhodov",
        "phone_number": "+89178923399",
        "card_number": "4276 4334 3454 7325",
        "rating": 5
      },
      "price": 700,
      "departure_time": "13:55",
      "arrival_time": "15:10"
    },
    {
      "deliveryman": {
        "first_name": "Sasha",
        "last_name": "Morozov",
        "age": 34,
        "category_license": "business",
        "experience_years": 3,
        "phone_number": "+89178923336",
        "rating": 5
      },
      "location": {
        "country": "Russia",
        "city": "Kazan",
        "street": "Kremlevskaya",
        "house_number": 35
      },
      "client": {
        "first_name": "Ivan",
        "last_name": "Medvedev",
        "phone_number": "+89178923399",
        "card_number": "4276 4341 3474 7825",
        "rating": 5
      },
      "price": 900,
      "departure_time": "14:23",
      "arrival_time": "15:20"
    }
  ]
}